<svg width="22" height="22" viewBox="0 0 22 22" fill="none" xmlns="http://www.w3.org/2000/svg">
<g clip-path="url(#clip0)">
<path d="M20.625 12.0828V4.125C20.625 3.36302 20.012 2.75 19.25 2.75H2.75C1.98802 2.75 1.375 3.36302 1.375 4.125V16.0417C1.375 16.8036 1.98802 17.4167 2.75 17.4167H11.0401" stroke="#6B6B6B" stroke-width="1.2" stroke-miterlimit="10" stroke-linecap="round" stroke-linejoin="round"/>
<path d="M1.375 6.875H20.625" stroke="#6B6B6B" stroke-width="1.2" stroke-miterlimit="10" stroke-linecap="round" stroke-linejoin="round"/>
<path d="M3.66602 14.667H7.79102" stroke="#6B6B6B" stroke-width="1.2" stroke-miterlimit="10" stroke-linecap="round" stroke-linejoin="round"/>
<path d="M16.041 20.625C19.0786 20.625 21.541 18.1626 21.541 15.125C21.541 12.0874 19.0786 9.625 16.041 9.625C13.0034 9.625 10.541 12.0874 10.541 15.125C10.541 18.1626 13.0034 20.625 16.041 20.625Z" stroke="#6B6B6B" stroke-width="1.2" stroke-miterlimit="10" stroke-linecap="round" stroke-linejoin="round"/>
<path d="M3.66602 11.917H5.49935" stroke="#6B6B6B" stroke-width="1.2" stroke-miterlimit="10" stroke-linecap="round" stroke-linejoin="round"/>
<path d="M7.33398 11.917H9.16732" stroke="#6B6B6B" stroke-width="1.2" stroke-miterlimit="10" stroke-linecap="round" stroke-linejoin="round"/>
<path d="M18.0668 15.125H14.0117" stroke="#6B6B6B" stroke-width="1.2" stroke-miterlimit="10" stroke-linecap="round" stroke-linejoin="round"/>
<path d="M16.0415 17.1548V13.0952" stroke="#6B6B6B" stroke-width="1.2" stroke-miterlimit="10" stroke-linecap="round" stroke-linejoin="round"/>
</g>
<defs>
<clipPath id="clip0">
<rect width="22" height="22" fill="white"/>
</clipPath>
</defs>
</svg>
