<svg width="23" height="23" viewBox="0 0 23 23" fill="none" xmlns="http://www.w3.org/2000/svg">
<path fill-rule="evenodd" clip-rule="evenodd" d="M19.3658 20.4652C19.973 20.4652 20.4658 19.9724 20.4658 19.3652V3.96516C20.4658 3.35906 19.973 2.86516 19.3658 2.86516H3.9658C3.3597 2.86516 2.8658 3.35906 2.8658 3.96516V19.3652C2.8658 19.9724 3.3597 20.4652 3.9658 20.4652H19.3658ZM3.96602 0.666016H19.366C21.1854 0.666016 22.666 2.14662 22.666 3.96602V19.366C22.666 21.1854 21.1854 22.666 19.366 22.666H3.96602C2.14662 22.666 0.666016 21.1854 0.666016 19.366V3.96602C0.666016 2.14662 2.14662 0.666016 3.96602 0.666016ZM14.1879 7.58859C14.618 7.15849 15.3132 7.15849 15.7433 7.58859C16.1734 8.01869 16.1734 8.71389 15.7433 9.14399L13.221 11.6663L15.7433 14.1886C16.1734 14.6187 16.1734 15.3139 15.7433 15.744C15.5288 15.9585 15.2472 16.0663 14.9656 16.0663C14.684 16.0663 14.4024 15.9585 14.1879 15.744L11.6656 13.2217L9.14334 15.744C8.92885 15.9585 8.64725 16.0663 8.36565 16.0663C8.08405 16.0663 7.80245 15.9585 7.58795 15.744C7.15785 15.3139 7.15785 14.6187 7.58795 14.1886L10.1102 11.6663L7.58795 9.14399C7.15785 8.71389 7.15785 8.01869 7.58795 7.58859C8.01805 7.15849 8.71325 7.15849 9.14334 7.58859L11.6656 10.1109L14.1879 7.58859Z" fill="black"/>
</svg>
