<svg width="18" height="30" viewBox="0 0 18 30" fill="none" xmlns="http://www.w3.org/2000/svg">
<path fill-rule="evenodd" clip-rule="evenodd" d="M0.582813 14.9999C0.582813 15.5332 0.78698 16.0666 1.19323 16.4728L13.6932 28.9728C14.5078 29.7874 15.8245 29.7874 16.6391 28.9728C17.4536 28.1582 17.4536 26.8416 16.6391 26.027L5.61198 14.9999L16.6391 3.9728C17.4536 3.15822 17.4536 1.84155 16.6391 1.02697C15.8245 0.212387 14.5078 0.212387 13.6932 1.02697L1.19323 13.527C0.78698 13.9332 0.582813 14.4666 0.582813 14.9999Z" fill="white"/>
</svg>
