<svg width="18" height="20" viewBox="0 0 18 20" fill="none" xmlns="http://www.w3.org/2000/svg">
<path fill-rule="evenodd" clip-rule="evenodd" d="M9.06981 4.99595e-05C4.46079 -0.0156082 0.696112 3.65135 0.545643 8.24135L0.541016 8.52625C0.617624 10.7761 1.38309 12.9207 2.7313 14.6876L3.04794 15.1008C4.33482 16.7371 5.86413 18.1733 7.58129 19.3571L7.99473 19.6354L8.05506 19.6828C8.64361 20.1057 9.43827 20.1057 10.0268 19.6828L10.077 19.6415C11.4396 18.7579 12.696 17.7196 13.8215 16.5473C16.1096 14.1252 17.4887 11.4112 17.5408 8.65498L17.5409 8.55264C17.5565 3.93192 13.9009 0.15567 9.32498 0.00469042L9.06981 4.99595e-05ZM9.06467 1.51747C12.8432 1.53038 15.911 4.54942 16.0249 8.30911L16.0282 8.64061C15.9844 10.9514 14.7745 13.3324 12.7276 15.4991C11.6839 16.5862 10.5138 17.5526 9.24458 18.3745L9.15999 18.438C9.09164 18.4974 8.99025 18.4974 8.9219 18.438L8.83968 18.376C6.94899 17.1416 5.28958 15.583 3.93738 13.7717C2.8482 12.3442 2.20277 10.6374 2.07286 8.85689L2.05377 8.49986C2.0666 4.71221 5.07634 1.63498 8.82447 1.52071L9.06467 1.51747ZM9.04094 5.40129C7.25255 5.40129 5.80277 6.85554 5.80277 8.64946C5.80277 10.4434 7.25255 11.8976 9.04094 11.8976C10.8293 11.8976 12.2791 10.4434 12.2791 8.64946C12.2791 6.85554 10.8293 5.40129 9.04094 5.40129ZM9.04094 6.91871C9.99387 6.91871 10.7664 7.69359 10.7664 8.64946C10.7664 9.60532 9.99387 10.3802 9.04094 10.3802C8.08802 10.3802 7.31553 9.60532 7.31553 8.64946C7.31553 7.69359 8.08802 6.91871 9.04094 6.91871Z" fill="#200E32"/>
</svg>
