<svg width="18" height="17" viewBox="0 0 18 17" fill="none" xmlns="http://www.w3.org/2000/svg">
<path fill-rule="evenodd" clip-rule="evenodd" d="M7.94305 0.18457C9.92574 0.18457 11.544 1.74618 11.6349 3.70643L11.6389 3.8804V4.6579C11.6389 5.00308 11.3591 5.2829 11.0139 5.2829C10.6975 5.2829 10.436 5.04778 10.3946 4.74271L10.3889 4.6579V3.8804C10.3889 2.57799 9.37053 1.51312 8.08674 1.43872L7.94305 1.43457H3.88055C2.57883 1.43457 1.51409 2.45301 1.4397 3.73672L1.43555 3.8804V13.1554C1.43555 14.4577 2.4538 15.5227 3.73693 15.5971L3.88055 15.6012H7.95138C9.24918 15.6012 10.3106 14.5866 10.3847 13.3077L10.3889 13.1646V12.3787C10.3889 12.0336 10.6687 11.7537 11.0139 11.7537C11.3303 11.7537 11.5918 11.9889 11.6332 12.2939L11.6389 12.3787V13.1646C11.6389 15.1406 10.0832 16.7538 8.13001 16.847L7.95138 16.8512H3.88055C1.89851 16.8512 0.280414 15.2895 0.18957 13.3294L0.185547 13.1554V3.8804C0.185547 1.89786 1.74701 0.279455 3.70663 0.188594L3.88055 0.18457H7.94305ZM17.1074 8.06644C17.2262 8.18021 17.3001 8.34038 17.3001 8.51782C17.3001 8.69706 17.2247 8.85867 17.1038 8.97264L14.6759 11.3906C14.4313 11.6342 14.0356 11.6333 13.792 11.3888C13.5706 11.1664 13.5511 10.8192 13.7332 10.5749L13.7938 10.5049L15.1606 9.14282H6.64096C6.29578 9.14282 6.01596 8.863 6.01596 8.51782C6.01596 8.20141 6.25109 7.93991 6.55615 7.89853L6.64096 7.89282H15.162L13.7939 6.53149C13.5715 6.3101 13.5506 5.96293 13.7316 5.71785L13.792 5.64761C14.0134 5.42523 14.3605 5.40429 14.6056 5.58529L14.6758 5.64565L17.1074 8.06644Z" fill="#6B6B6B"/>
</svg>
