<svg width="15" height="17" viewBox="0 0 15 17" fill="none" xmlns="http://www.w3.org/2000/svg">
<path fill-rule="evenodd" clip-rule="evenodd" d="M7.50423 0.166992C5.05921 0.166992 3.07713 2.15752 3.07713 4.61297C3.07713 7.06842 5.05921 9.05895 7.50423 9.05895C9.94925 9.05895 11.9313 7.06842 11.9313 4.61297C11.9313 2.15752 9.94925 0.166992 7.50423 0.166992ZM7.50423 1.37338C9.28581 1.37338 10.7301 2.8238 10.7301 4.61297C10.7301 6.40214 9.28581 7.85256 7.50423 7.85256C5.72265 7.85256 4.2784 6.40214 4.2784 4.61297C4.2784 2.8238 5.72265 1.37338 7.50423 1.37338ZM5.69236 10.8511C5.04426 10.8961 4.38916 10.9886 3.74298 11.1271C2.4958 11.384 1.49803 11.8972 1.07335 12.7502C0.913174 13.0838 0.832642 13.441 0.834001 13.8026C0.833521 14.1616 0.9134 14.5192 1.06783 14.8464C1.4756 15.6896 2.35715 16.1667 3.54752 16.4312L3.76076 16.4757C4.38939 16.6175 5.04469 16.713 5.70437 16.7579C5.76056 16.7743 5.89446 16.7896 6.04062 16.7971L6.16083 16.8016C6.22264 16.803 6.2928 16.8034 6.39732 16.8034C7.34552 16.8556 8.3285 16.8404 9.30691 16.7571C9.82831 16.7214 10.3532 16.6532 10.8738 16.5533L11.2632 16.4725C12.5486 16.2189 13.5111 15.7367 13.9328 14.8473C14.2454 14.1871 14.2454 13.4209 13.933 12.7609C13.5123 11.8739 12.5621 11.3957 11.2535 11.1261C10.74 11.0165 10.2183 10.9354 9.69288 10.8836L9.30874 10.8511C8.10559 10.7449 6.8955 10.7449 5.69236 10.8511ZM9.20362 12.0528L9.21418 12.0537C9.81722 12.0961 10.4166 12.1808 11.0079 12.307C11.9799 12.5072 12.6395 12.8392 12.8482 13.2793C13.0054 13.6112 13.0054 13.9968 12.8481 14.329C12.6531 14.7402 12.0606 15.0579 11.2044 15.2521L11.0169 15.2918C10.414 15.4263 9.8166 15.513 9.21528 15.5542C8.28226 15.6336 7.35477 15.6479 6.42962 15.5979L6.10162 15.5923C6.01056 15.5876 5.93383 15.5788 5.86271 15.5646C5.29958 15.5221 4.79287 15.4548 4.30087 15.3573L4.00711 15.2951C3.03207 15.104 2.36661 14.7706 2.15085 14.3245C2.07535 14.1645 2.03502 13.9839 2.03526 13.8011C2.03459 13.6193 2.07438 13.4428 2.15163 13.2819C2.36142 12.8607 3.06664 12.4979 3.98903 12.3079C4.58459 12.1802 5.18366 12.0956 5.78643 12.0537C6.93067 11.9529 8.07042 11.9529 9.20362 12.0528Z" fill="#6B6B6B"/>
</svg>
