<svg width="20" height="20" viewBox="0 0 20 20" fill="none" xmlns="http://www.w3.org/2000/svg">
<rect x="1.66699" y="1.66797" width="16.6667" height="16.6667" rx="4" stroke="#6B6B6B" stroke-width="1.2"/>
<mask id="mask0" mask-type="alpha" maskUnits="userSpaceOnUse" x="1" y="1" width="18" height="18">
<rect x="1.66699" y="1.66797" width="16.6667" height="16.6667" rx="4" fill="white"/>
</mask>
<g mask="url(#mask0)">
<path fill-rule="evenodd" clip-rule="evenodd" d="M11.9306 13.1265C11.8757 13.1265 11.8205 13.1137 11.7698 13.0873L9.99935 12.1623L8.22921 13.0873C8.11185 13.148 7.97018 13.1376 7.86393 13.0599C7.75699 12.9821 7.70386 12.8505 7.72643 12.7203L8.06359 10.7661L6.63303 9.38242C6.53789 9.29041 6.50352 9.15221 6.54414 9.02582C6.58477 8.90013 6.69345 8.80812 6.8247 8.78937L8.80386 8.50187L9.68859 6.72201C9.80595 6.48589 10.1931 6.48589 10.3105 6.72201L11.1952 8.50187L13.1743 8.78937C13.3056 8.80812 13.4143 8.90013 13.4549 9.02582C13.4955 9.15221 13.4612 9.29041 13.366 9.38242L11.9355 10.7661L12.2726 12.7203C12.2952 12.8505 12.2417 12.9821 12.1351 13.0599C12.0747 13.1043 12.0028 13.1265 11.9306 13.1265Z" fill="#6B6B6B"/>
</g>
</svg>
